…
### Requirement 2
> Which 5-minute interval, on average across all the days in the dataset, contains the maximum number of steps?

For interest we can sort the previously saved data set by largest average number of steps - from largest to smallest.

```r
activity_by_interval %>% arrange(desc(step_mean))
```

```
## # A tibble: 288 × 2
##    interval step_mean
##       <int>     <dbl>
## 1       835  206.1698
## 2       840  195.9245
## 3       850  183.3962
## 4       845  179.5660
## 5       830  177.3019
## 6       820  171.1509
## 7       855  167.0189
## 8       815  157.5283
## 9       825  155.3962
## 10      900  143.4528
## # ... with 278 more rows
```
…
